------------------------------------------
|                                        |
|                                        |
|                                        |
|                                        |
|                                        |
|                                        |
|                                        |
|                                        |
------------------------------------------
------------------------------------------
|                                        |
|xxxxxx                                  |
|                                        |
|                                        |
|                                        |
|                                        |
|                                        |
|                                        |
------------------------------------------
------------------------------------------
|                                        |
|xxxxxx                                  |
|     x                                  |
|     x                                  |
|     x                                  |
|     x                                  |
|     x                                  |
|     x                                  |
------------------------------------------
------------------------------------------
|               xxxxxxxxxxxxxxx          |
|xxxxxx         x             x          |
|     x         x             x          |
|     x         x             x          |
|     x         x             x          |
|     x         xxxxxxxxxxxxxxx          |
|     x                                  |
|     x                                  |
------------------------------------------
------------------------------------------
|               xxxxxxxxxxxxxxx          |
|xxxxxx         x             x          |
|     x         x             x          |
|     x         x             x          |
|     x         x             x          |
|     x         xxxxxxxxxxxxxxx          |
|     x            x                     |
|     x            x                     |
------------------------------------------
------------------------------------------
|               xxxxxxxxxxxxxxx          |
|xxxxxx         xqqqqqqqqqqqqqx          |
|     x         xqqqqqqqqqqqqqx          |
|     x         xqqqqqqqqqqqqqx          |
|     x         xqqqqqqqqqqqqqx          |
|     x         xxxxxxxxxxxxxxx          |
|     x            x                     |
|     x            x                     |
------------------------------------------
------------------------------------------
|               xxxxxxxxxxxxxxx          |
|xxxxxx         xqqqqqqqqqqqqqx          |
|     x         xqqqqqqqqqqqqqx          |
|     x   xxxxxxxxxxxqqqqqqqqqx          |
|     x         xqqqqqqqqqqqqqx          |
|     x         xxxxxxxxxxxxxxx          |
|     x            x                     |
|     x            x                     |
------------------------------------------
